\relax 
\providecommand\hyper@newdestlabel[2]{}
\providecommand\HyperFirstAtBeginDocument{\AtBeginDocument}
\HyperFirstAtBeginDocument{\ifx\hyper@anchor\@undefined
\global\let\oldcontentsline\contentsline
\gdef\contentsline#1#2#3#4{\oldcontentsline{#1}{#2}{#3}}
\global\let\oldnewlabel\newlabel
\gdef\newlabel#1#2{\newlabelxx{#1}#2}
\gdef\newlabelxx#1#2#3#4#5#6{\oldnewlabel{#1}{{#2}{#3}}}
\AtEndDocument{\ifx\hyper@anchor\@undefined
\let\contentsline\oldcontentsline
\let\newlabel\oldnewlabel
\fi}
\fi}
\global\let\hyper@last\relax 
\gdef\HyperFirstAtBeginDocument#1{#1}
\providecommand\HyField@AuxAddToFields[1]{}
\providecommand\HyField@AuxAddToCoFields[2]{}
\citation{reddit1}
\citation{reddit2}
\@writefile{toc}{\contentsline {chapter}{\numberline {1}Introduction}{1}{chapter.1}}
\@writefile{lof}{\addvspace {10\p@ }}
\@writefile{lot}{\addvspace {10\p@ }}
\newlabel{cha:intro}{{1}{1}{Introduction}{chapter.1}{}}
\@writefile{toc}{\contentsline {chapter}{\numberline {2}Preprocessing}{3}{chapter.2}}
\@writefile{lof}{\addvspace {10\p@ }}
\@writefile{lot}{\addvspace {10\p@ }}
\newlabel{cha:preproc}{{2}{3}{Preprocessing}{chapter.2}{}}
\@writefile{toc}{\contentsline {section}{\numberline {2.1}Preprocessing of the Redditdata}{3}{section.2.1}}
\@writefile{toc}{\contentsline {section}{\numberline {2.2}Processing of the Preprocessed Data}{4}{section.2.2}}
\@writefile{toc}{\contentsline {chapter}{\numberline {3}RapidMiner}{6}{chapter.3}}
\@writefile{lof}{\addvspace {10\p@ }}
\@writefile{lot}{\addvspace {10\p@ }}
\newlabel{cha:rapid}{{3}{6}{RapidMiner}{chapter.3}{}}
\@writefile{toc}{\contentsline {section}{\numberline {3.1}Without Text Mining}{6}{section.3.1}}
\gdef \LT@i {\LT@entry 
    {1}{137.67484pt}\LT@entry 
    {1}{57.32765pt}\LT@entry 
    {1}{51.2394pt}\LT@entry 
    {1}{82.02087pt}}
\gdef \LT@ii {\LT@entry 
    {1}{137.67484pt}\LT@entry 
    {1}{57.32765pt}\LT@entry 
    {1}{51.2394pt}\LT@entry 
    {1}{82.02087pt}}
\bibcite{reddit1}{1}
\bibcite{reddit2}{2}
