\contentsline {chapter}{\numberline {1}Introduction}{1}{chapter.1}
\contentsline {chapter}{\numberline {2}Preprocessing}{3}{chapter.2}
\contentsline {section}{\numberline {2.1}Preprocessing of the Redditdata}{3}{section.2.1}
\contentsline {section}{\numberline {2.2}Processing of the Preprocessed Data}{4}{section.2.2}
\contentsline {chapter}{\numberline {3}RapidMiner}{6}{chapter.3}
\contentsline {section}{\numberline {3.1}Without Text Mining}{6}{section.3.1}
