This is BibTeX, Version 0.99dThe top-level auxiliary file: Summary.aux
I found no \bibdata command---while reading file Summary.aux
I found no \bibstyle command---while reading file Summary.aux
(There were 2 error messages)
